{
  "$schema": "http://json-schema.org/schema",
  "id": "schema",
  "title": "App Schema",
  "type": "object",
  "properties": {
    "name": {
      "type": "string",
      "default": "name"
    },
    "path": {
      "type": "string",
      "default": "src"
    },
    "appRoot": {
      "type": "string"
    },
    "sourceDir": {
      "type": "string",
      "default": "src"
    },
    "service": {
      "type": "string",
      "alias": "s"
    },
    "model": {
      "type": "string",
      "alias": "m"
    },
    "mock": {
      "type": "string"
    }
  }
}
